<?xml version="1.0" encoding="UTF-8" standalone="no"?>
<svg
   xmlns:dc="http://purl.org/dc/elements/1.1/"
   xmlns:cc="http://creativecommons.org/ns#"
   xmlns:rdf="http://www.w3.org/1999/02/22-rdf-syntax-ns#"
   xmlns:svg="http://www.w3.org/2000/svg"
   xmlns="http://www.w3.org/2000/svg"
   xmlns:sodipodi="http://sodipodi.sourceforge.net/DTD/sodipodi-0.dtd"
   xmlns:inkscape="http://www.inkscape.org/namespaces/inkscape"
   id="Layer_1"
   data-name="Layer 1"
   viewBox="0 0 231.35 38.22"
   version="1.1"
   sodipodi:docname="dblogo.svg"
   inkscape:version="0.92.3 (2405546, 2018-03-11)">
  <metadata
     id="metadata945">
    <rdf:RDF>
      <cc:Work
         rdf:about="">
        <dc:format>image/svg+xml</dc:format>
        <dc:type
           rdf:resource="http://purl.org/dc/dcmitype/StillImage" />
      </cc:Work>
    </rdf:RDF>
  </metadata>
  <sodipodi:namedview
     pagecolor="#ffffff"
     bordercolor="#666666"
     borderopacity="1"
     objecttolerance="10"
     gridtolerance="10"
     guidetolerance="10"
     inkscape:pageopacity="0"
     inkscape:pageshadow="2"
     inkscape:window-width="1920"
     inkscape:window-height="1027"
     id="namedview943"
     showgrid="false"
     inkscape:zoom="4.9103089"
     inkscape:cx="58.479626"
     inkscape:cy="16.587327"
     inkscape:window-x="-8"
     inkscape:window-y="-8"
     inkscape:window-maximized="1"
     inkscape:current-layer="Layer_1" />
  <defs
     id="defs910">
    <style
       id="style908">.cls-1{fill:#fff;}.cls-2{fill:#f93822;}</style>
  </defs>
  <title
     id="title912">dblogo_login</title>
  <path
     class="cls-1"
     d="M21.64,29.09h-6V27h-.08A7.07,7.07,0,0,1,9.9,29.65c-5.1,0-9.16-3.3-9.28-11C.5,10.22,5.36,7.36,9.62,7.36a7.68,7.68,0,0,1,5.81,2.23V.75h6.21ZM11.09,11.9c-2.95,0-4.26,2.55-4.26,6.61,0,3.46.84,6.61,4.26,6.61,3.22,0,4.34-3,4.34-7C15.43,14.28,14.32,11.9,11.09,11.9Z"
     transform="translate(-0.62 -0.75)"
     id="path914" />
  <path
     class="cls-1"
     d="M28.93,19.78c0,4.06,2.63,5.33,4.62,5.33,2.31,0,3.38-1.19,5.18-3.74l4.66,2.43c-2.15,4-5.53,5.85-10.27,5.85-6.57,0-10.39-4.54-10.39-10.51,0-7.48,3.94-11.78,10.39-11.78,7.72,0,10.35,5.89,10.39,12.42ZM37.29,16a4,4,0,0,0-4.22-4.06A4.28,4.28,0,0,0,28.85,16Z"
     transform="translate(-0.62 -0.75)"
     id="path916" />
  <path
     class="cls-1"
     d="M44.65,7.92h6.21V9.79A8.14,8.14,0,0,1,57,7.36a6.56,6.56,0,0,1,5.61,2.83,9.08,9.08,0,0,1,6.81-2.83c2.07,0,6.53.72,6.53,5.57V29.09H69.73V16.71c0-3-.84-4.34-3.18-4.34-2.07,0-3.14,1.55-3.14,3.7v13H57.19V15.84c0-2.07-.64-3.46-3-3.46s-3.3,1.63-3.3,3.54V29.09H44.65Z"
     transform="translate(-0.62 -0.75)"
     id="path918" />
  <path
     class="cls-1"
     d="M96.21,24.67a12.5,12.5,0,0,0,.56,4.42H91a8.46,8.46,0,0,1-.4-2.19h-.08c-1,1.67-4.14,2.75-6.37,2.75-4.06,0-7.09-2.23-7.09-6.29,0-5.1,4.1-6.89,10.87-7.84l2.27-.32V13.45c0-1.59-1.27-2.27-2.95-2.27-2,0-2.95.72-3.26,2.83h-6c.2-6.09,5.85-6.65,8.72-6.65,5.77,0,9.39,1.35,9.43,6.13Zm-6-5.89L86.06,20c-1.55.44-3,1-3,2.75s1.39,2.39,2.91,2.39c2.43,0,4.26-1.63,4.26-4.86Z"
     transform="translate(-0.62 -0.75)"
     id="path920" />
  <path
     class="cls-1"
     d="M97.76,7.92H104V9.79a8.14,8.14,0,0,1,6.13-2.43c5,0,6.41,2.91,6.41,6.09V29.09H110.3V15.84c0-2.07-.64-3.46-3-3.46S104,14,104,15.92V29.09H97.76Z"
     transform="translate(-0.62 -0.75)"
     id="path922" />
  <path
     class="cls-1"
     d="M138.6,29.09h-6V27h-.08a7.07,7.07,0,0,1-5.69,2.63c-5.1,0-9.16-3.3-9.28-11-.12-8.44,4.74-11.31,9-11.31a7.68,7.68,0,0,1,5.81,2.23V.75h6.21ZM128.05,11.9c-2.95,0-4.26,2.55-4.26,6.61,0,3.46.84,6.61,4.26,6.61,3.22,0,4.34-3,4.34-7C132.39,14.28,131.28,11.9,128.05,11.9Z"
     transform="translate(-0.62 -0.75)"
     id="path924" />
  <path
     class="cls-2"
     d="M138.6.75H141V12.93h.08a5.79,5.79,0,0,1,5.61-3.42c4.38,0,8,3.58,8,10.27,0,7.09-4.74,9.79-8.12,9.79a5.54,5.54,0,0,1-5.49-3.42H141v2.95H138.6Zm7.76,11c-4.54,0-5.49,4.06-5.49,7.8s1.19,7.8,5.65,7.8c3.42,0,5.77-3,5.77-7.8S149.95,11.74,146.37,11.74Z"
     transform="translate(-0.62 -0.75)"
     id="path926" />
  <path
     class="cls-2"
     d="M156.88,10h2.39v2.67h.08c1.31-2,2.71-3.14,5.18-3.14.64,0,1.11,0,1.71.08v2.07a7.43,7.43,0,0,0-1.59-.16c-3.7,0-5.37,2.71-5.37,6.61v11h-2.39Z"
     transform="translate(-0.62 -0.75)"
     id="path928" />
  <path
     class="cls-2"
     d="M167.31,2.1h2.39V5.85h-2.39Zm0,7.88h2.39V29.09h-2.39Z"
     transform="translate(-0.62 -0.75)"
     id="path930" />
  <path
     class="cls-2"
     d="M185.82,26.51h-.08a5.85,5.85,0,0,1-5.57,3.07c-3.58,0-8-2.71-8-9.79,0-6.69,3.62-10.27,8-10.27a6.13,6.13,0,0,1,5.61,3h.08V.75h2.39V29.09h-2.39Zm-5.53.84c4.46,0,5.65-4.06,5.65-7.8s-1-7.8-5.49-7.8c-3.58,0-5.93,3-5.93,7.8S176.86,27.34,180.28,27.34Z"
     transform="translate(-0.62 -0.75)"
     id="path932" />
  <path
     class="cls-2"
     d="M192.75,31.6c.4,3.7,2.71,5.13,5.93,5.13s6-.84,6-6.61V26.19l0-.08a6.91,6.91,0,0,1-6.29,3.46c-3.38,0-8.12-2.71-8.12-9.79,0-6.69,3.62-10.27,8-10.27,3,0,5.33,1.27,6.37,3.62h.08V10h2.39V29.93c0,3.94-.64,9-8.4,9-4.9,0-7.84-1.79-8.36-6.85Zm5.81-19.86c-3.58,0-5.93,3-5.93,7.8s2.35,7.8,5.93,7.8c4.62,0,6.05-3.22,6.05-7.44S203.57,11.74,198.56,11.74Z"
     transform="translate(-0.62 -0.75)"
     id="path934" />
  <path
     class="cls-2"
     d="M211.73,19.46V20c0,4.26,1.87,7.36,6.13,7.36a6.16,6.16,0,0,0,6.21-4.06l2.23.6a8.78,8.78,0,0,1-8.64,5.69c-4.78,0-8.64-3.5-8.64-10s3.86-10,8.64-10c5.65,0,8.44,4.3,8.64,10Zm11.86-2c-.52-2.79-2-5.73-5.93-5.73-3.38,0-5.53,2.55-5.93,5.73Z"
     transform="translate(-0.62 -0.75)"
     id="path936" />
  <path
     class="cls-2"
     d="M225,4.53a3.5,3.5,0,1,1,3.5,3.5A3.51,3.51,0,0,1,225,4.53Zm3.5-3a3,3,0,0,0-2.94,3,2.94,2.94,0,1,0,5.88,0A3,3,0,0,0,228.47,1.5Zm-.81,5.16h-.47V2.39h1.54a1.15,1.15,0,0,1,1.31,1.18,1.08,1.08,0,0,1-1,1.19l1.2,1.9h-.58l-1.13-1.9h-.86Zm0-2.31h1c.56,0,1-.12,1-.78s-.42-.77-1-.77h-1Z"
     transform="translate(-0.62 -0.75)"
     id="path938" />
  <rect
     class="cls-1"
     x="134.95"
     y="13.44"
     width="2.41"
     height="37.02"
     transform="translate(167.48 -104.96) rotate(90)"
     id="rect940" />
</svg>
